<?xml version="1.0" encoding="utf-8"?>
<!-- Generator: Adobe Illustrator 21.1.0, SVG Export Plug-In . SVG Version: 6.00 Build 0)  -->
<svg version="1.1" id="Layer_1" xmlns="http://www.w3.org/2000/svg" xmlns:xlink="http://www.w3.org/1999/xlink" x="0px" y="0px"
	 viewBox="0 0 178 178" style="enable-background:new 0 0 178 178;" xml:space="preserve">
<style type="text/css">
	.st0{fill:url(#SVGID_1_);}
	.st1{fill:#FFFFFF;}
</style>
<linearGradient id="SVGID_1_" gradientUnits="userSpaceOnUse" x1="366.9727" y1="-156.7232" x2="366.9727" y2="-512.6895" gradientTransform="matrix(0.5 0 0 -0.5 -94.4956 -78.3684)">
	<stop  offset="0" style="stop-color:#F9AA4C"/>
	<stop  offset="1" style="stop-color:#F7941F"/>
</linearGradient>
<path class="st0" d="M175.3,110.5c-11.9,47.7-60.2,76.7-107.9,64.8C19.8,163.4-9.2,115.2,2.7,67.5C14.5,19.8,62.8-9.2,110.5,2.7
	C158.2,14.6,187.2,62.8,175.3,110.5z"/>
<path class="st1" d="M128.2,76.3c1.8-11.8-7.2-18.2-19.6-22.5l4-16l-9.8-2.4L99,51c-2.6-0.6-5.2-1.2-7.8-1.8l3.9-15.7L85.3,31l-4,16
	c-2.1-0.5-4.2-1-6.2-1.5l0-0.1l-13.5-3.4L59,52.6c0,0,7.2,1.7,7.1,1.8c4,1,4.7,3.6,4.6,5.7l-4.6,18.3c0.3,0.1,0.6,0.2,1,0.3
	c-0.3-0.1-0.7-0.2-1-0.3L59.7,104c-0.5,1.2-1.7,3-4.5,2.3c0.1,0.1-7.1-1.8-7.1-1.8l-4.8,11.2l12.7,3.2c2.4,0.6,4.7,1.2,7,1.8
	l-4,16.2l9.8,2.4l4-16.1c2.7,0.7,5.3,1.4,7.8,2l-4,16l9.8,2.4l4-16.2c16.7,3.2,29.2,1.9,34.4-13.2c4.2-12.1-0.2-19.1-9-23.7
	C122.1,89.2,126.9,85,128.2,76.3z M105.9,107.6c-3,12.1-23.4,5.6-30.1,3.9L81.2,90C87.8,91.7,109.1,95,105.9,107.6z M108.9,76.1
	c-2.8,11-19.7,5.4-25.3,4.1l4.9-19.5C94.1,62.1,111.8,64.6,108.9,76.1z"/>
</svg>
