<?xml version="1.0" encoding="utf-8"?>
<!-- Generator: Adobe Illustrator 16.0.0, SVG Export Plug-In . SVG Version: 6.00 Build 0)  -->
<!DOCTYPE svg PUBLIC "-//W3C//DTD SVG 1.1//EN" "http://www.w3.org/Graphics/SVG/1.1/DTD/svg11.dtd">
<svg version="1.1" id="Layer_1" xmlns="http://www.w3.org/2000/svg" xmlns:xlink="http://www.w3.org/1999/xlink" x="0px" y="0px"
	 width="612px" height="612px" viewBox="0 0 612 612" enable-background="new 0 0 612 612" xml:space="preserve">
<circle fill="#F19D26" cx="306" cy="306.002" r="304.035"/>
<g>
	<path fill="#FFFFFF" d="M379.299,446.378l-68.059-34.23l-82.479,40.363l150.538,74.604c3.643,1.791,6.623-0.06,6.623-4.121v-65.97
		C385.922,452.951,382.941,448.156,379.299,446.378z"/>
	<path fill="#FFFFFF" d="M272.233,320.937l-71.533,34.353c-3.643,1.767-6.623,6.55-6.623,10.621v65.972
		c0,4.059,2.98,5.924,6.623,4.133l154.007-74.716L272.233,320.937z"/>
	<g>
		<path fill="#FFFFFF" d="M379.299,263.98l-70.989-35.003l-82.467,40.375l153.456,75.366c3.643,1.79,6.623-0.073,6.623-4.133
			v-65.984C385.922,270.554,382.941,265.758,379.299,263.98z"/>
	</g>
	<path fill="#FFFFFF" d="M385.922,154.997c0,4.06-2.98,8.843-6.623,10.622L200.701,253.04c-3.643,1.778-6.623-0.074-6.623-4.133
		v-65.971c0-4.072,2.98-8.855,6.623-10.633l178.598-87.421c3.643-1.791,6.623,0.086,6.623,4.146V154.997z"/>
</g>
</svg>
