<?xml version="1.0" encoding="utf-8"?>
<!-- Generator: Adobe Illustrator 16.0.0, SVG Export Plug-In . SVG Version: 6.00 Build 0)  -->
<!DOCTYPE svg PUBLIC "-//W3C//DTD SVG 1.1//EN" "http://www.w3.org/Graphics/SVG/1.1/DTD/svg11.dtd">
<svg version="1.1" id="Layer_1" xmlns="http://www.w3.org/2000/svg" xmlns:xlink="http://www.w3.org/1999/xlink" x="0px" y="0px"
	 width="232.435px" height="212.274px" viewBox="0 0 232.435 212.274" enable-background="new 0 0 232.435 212.274"
	 xml:space="preserve">
<g>
	<g>
		<linearGradient id="SVGID_1_" gradientUnits="userSpaceOnUse" x1="323.0039" y1="155.834" x2="336.0146" y2="133.2987">
			<stop  offset="0" style="stop-color:#AB7B2B"/>
			<stop  offset="0.0555" style="stop-color:#B3802A"/>
			<stop  offset="0.2299" style="stop-color:#C88E28"/>
			<stop  offset="0.4244" style="stop-color:#D79826"/>
			<stop  offset="0.6531" style="stop-color:#E09D25"/>
			<stop  offset="1" style="stop-color:#E39F25"/>
		</linearGradient>
		<polygon fill="url(#SVGID_1_)" points="311.417,132.551 323.104,155.891 345.756,159.779 341.464,136.445 311.417,132.551 		"/>
		<linearGradient id="SVGID_2_" gradientUnits="userSpaceOnUse" x1="391.8926" y1="162.2085" x2="412.2661" y2="126.9205">
			<stop  offset="0" style="stop-color:#AB7B2B"/>
			<stop  offset="0.0555" style="stop-color:#B3802A"/>
			<stop  offset="0.2299" style="stop-color:#C88E28"/>
			<stop  offset="0.4244" style="stop-color:#D79826"/>
			<stop  offset="0.6531" style="stop-color:#E09D25"/>
			<stop  offset="1" style="stop-color:#E39F25"/>
		</linearGradient>
		<polygon fill="url(#SVGID_2_)" points="422.02,132.551 391.973,136.445 387.685,159.779 410.333,155.891 422.02,132.551 		"/>
	</g>
	<g>
		<linearGradient id="SVGID_3_" gradientUnits="userSpaceOnUse" x1="291.8818" y1="241.8281" x2="435.9412" y2="-7.69">
			<stop  offset="0" style="stop-color:#AB7B2B"/>
			<stop  offset="0.0555" style="stop-color:#B3802A"/>
			<stop  offset="0.2299" style="stop-color:#C88E28"/>
			<stop  offset="0.4244" style="stop-color:#D79826"/>
			<stop  offset="0.6531" style="stop-color:#E09D25"/>
			<stop  offset="1" style="stop-color:#E39F25"/>
		</linearGradient>
		<path fill="url(#SVGID_3_)" d="M406.224,262.227l-16.047-20.398l-17.21,4.09h-12.496l-17.216-4.09l-16.042,20.398l-76.713-90.84
			l30.464-61.606l-11.45-61.062l10.077-46.073l27.118,45.314l43.152,24.233h33.715l43.15-24.233l27.114-45.314l10.08,46.073
			l-11.454,61.062l30.468,61.606L406.224,262.227z M397.276,221.488l9.448,12.014l54.664-64.736l-27.876-56.372l11.045-58.891
			l-1.153,6.154l-55.079,30.688h-43.214l-56.524-31.291l0.292-5.551l11.043,58.891l-27.871,56.372l54.66,64.736l9.449-12.014
			l26.434,6.281h8.248L397.276,221.488z"/>
	</g>
</g>
<g>
	<path fill="#AA7B2B" d="M276.455,286.235v35.01h21.001v8.738h-31.502v-43.748H276.455z"/>
	<path fill="#AA7B2B" d="M307.205,286.235l9.528,15.171l9.529-15.171h11.894l-16.204,24.996v18.752h-10.437v-18.752l-16.172-24.996
		H307.205z"/>
	<path fill="#AA7B2B" d="M380.802,310.417v-24.289h10.533v44.752l-31.502-25.131v24.289h-10.501v-44.725L380.802,310.417z"/>
	<path fill="#AA7B2B" d="M414.566,286.235l8.913,13.001l8.944-13.001h12.057l-14.974,21.848l14.974,21.9h-12.057l-8.944-13.053
		l-8.913,13.053l-12.057-0.026l14.908-21.874l-14.908-21.848H414.566z"/>
</g>
<g>
	<g>
		<linearGradient id="SVGID_4_" gradientUnits="userSpaceOnUse" x1="116.1182" y1="136.6748" x2="123.8475" y2="123.2872">
			<stop  offset="0" style="stop-color:#AD7A15"/>
			<stop  offset="0.0496" style="stop-color:#B47F12"/>
			<stop  offset="0.2251" style="stop-color:#C98D0A"/>
			<stop  offset="0.4208" style="stop-color:#D89604"/>
			<stop  offset="0.6509" style="stop-color:#E19C01"/>
			<stop  offset="1" style="stop-color:#E49E00"/>
		</linearGradient>
		<path fill="url(#SVGID_4_)" d="M128.417,128.492l-10.837-5.453l-13.135,6.429l23.972,11.881c0.58,0.285,1.055-0.01,1.055-0.657
			v-10.507C129.472,129.539,128.997,128.775,128.417,128.492z"/>
		<linearGradient id="SVGID_5_" gradientUnits="userSpaceOnUse" x1="102.8853" y1="130.3711" x2="114.3887" y2="110.4465">
			<stop  offset="0" style="stop-color:#AD7A15"/>
			<stop  offset="0.0496" style="stop-color:#B47F12"/>
			<stop  offset="0.2251" style="stop-color:#C98D0A"/>
			<stop  offset="0.4208" style="stop-color:#D89604"/>
			<stop  offset="0.6509" style="stop-color:#E19C01"/>
			<stop  offset="1" style="stop-color:#E49E00"/>
		</linearGradient>
		<path fill="url(#SVGID_5_)" d="M111.368,108.515l-11.392,5.471c-0.58,0.282-1.054,1.043-1.054,1.691v10.506
			c0,0.647,0.474,0.943,1.054,0.659l24.525-11.9L111.368,108.515z"/>
		<g>
			<linearGradient id="SVGID_6_" gradientUnits="userSpaceOnUse" x1="115.8408" y1="107.6426" x2="122.8097" y2="95.5721">
				<stop  offset="0" style="stop-color:#AD7A15"/>
				<stop  offset="0.0496" style="stop-color:#B47F12"/>
				<stop  offset="0.2251" style="stop-color:#C98D0A"/>
				<stop  offset="0.4208" style="stop-color:#D89604"/>
				<stop  offset="0.6509" style="stop-color:#E19C01"/>
				<stop  offset="1" style="stop-color:#E49E00"/>
			</linearGradient>
			<path fill="url(#SVGID_6_)" d="M128.417,99.444l-11.304-5.574l-13.133,6.429l24.437,12.002c0.58,0.285,1.055-0.011,1.055-0.658
				v-10.506C129.472,100.491,128.997,99.728,128.417,99.444z"/>
		</g>
		<linearGradient id="SVGID_7_" gradientUnits="userSpaceOnUse" x1="104.6489" y1="100.8501" x2="123.7444" y2="67.7758">
			<stop  offset="0" style="stop-color:#AD7A15"/>
			<stop  offset="0.0496" style="stop-color:#B47F12"/>
			<stop  offset="0.2251" style="stop-color:#C98D0A"/>
			<stop  offset="0.4208" style="stop-color:#D89604"/>
			<stop  offset="0.6509" style="stop-color:#E19C01"/>
			<stop  offset="1" style="stop-color:#E49E00"/>
		</linearGradient>
		<path fill="url(#SVGID_7_)" d="M129.472,82.088c0,0.647-0.475,1.409-1.055,1.692L99.976,97.703
			c-0.58,0.282-1.054-0.013-1.054-0.66V86.538c0-0.647,0.474-1.409,1.054-1.693l28.441-13.921c0.58-0.285,1.055,0.012,1.055,0.659
			V82.088z"/>
	</g>
	<linearGradient id="SVGID_8_" gradientUnits="userSpaceOnUse" x1="58.6221" y1="205.873" x2="173.8182" y2="6.3474">
		<stop  offset="0" style="stop-color:#AD7A15"/>
		<stop  offset="0.0496" style="stop-color:#B47F12"/>
		<stop  offset="0.2251" style="stop-color:#C98D0A"/>
		<stop  offset="0.4208" style="stop-color:#D89604"/>
		<stop  offset="0.6509" style="stop-color:#E19C01"/>
		<stop  offset="1" style="stop-color:#E49E00"/>
	</linearGradient>
	<path fill-rule="evenodd" clip-rule="evenodd" fill="url(#SVGID_8_)" d="M191.672,47.483c-0.437,4.614-0.789,9.237-1.35,13.834
		c-0.21,1.74,0.521,2.366,1.954,2.976c9.468,4.035,18.499,8.833,26.141,15.867c5.561,5.116,9.965,11.023,12.017,18.447
		c2.942,10.653-0.233,19.859-6.957,28.041c-8.072,9.822-18.825,15.91-30.318,20.76c-2.621,1.105-3.016,2.35-2.707,5.015
		c1.562,13.556,1.722,27.061-4.361,39.76c-6.062,12.664-16.483,18.217-29.041,17.824c-9.053-0.283-17.582-3.574-25.418-8.189
		c-4.567-2.689-8.974-5.684-13.264-8.803c-1.788-1.301-2.875-1.088-4.469,0.154c-8.608,6.697-17.938,12.072-28.501,15.111
		c-10.686,3.076-20.806,2.387-29.939-4.541c-6.269-4.754-9.802-11.342-11.902-18.736c-3.062-10.777-2.973-21.784-1.531-32.754
		c0.383-2.924-0.459-3.852-2.863-4.858c-9.412-3.942-18.217-8.932-25.75-15.931c-4.959-4.606-8.972-9.923-11.046-16.417
		c-3.176-9.954-1.032-19.079,4.962-27.41c6.026-8.371,14.248-14.082,23.227-18.801c3.242-1.706,6.604-3.188,9.962-4.659
		c1.534-0.67,1.693-1.51,1.514-3.157c-1.417-12.934-1.949-25.842,3.029-38.273c6.446-16.1,21.146-23.54,38.036-19.337
		c11.266,2.804,21.181,8.309,30.255,15.373c2.165,1.685,3.595,1.655,5.728-0.006c9-7.004,18.83-12.447,29.977-15.295
		c17.77-4.54,33.384,4.017,39.16,21.431C190.646,32.244,191.505,39.776,191.672,47.483z M116.242,60.066
		c-7.798,0.519-15.517,0.947-23.211,1.626c-1.35,0.118-3.062,0.947-3.842,2.009c-9.238,12.574-16.954,26.059-23.332,40.292
		c-0.509,1.139-0.434,2.911,0.079,4.076c6.369,14.458,14.303,28.035,23.561,40.826c0.679,0.937,2.139,1.699,3.315,1.827
		c15.621,1.693,31.259,1.687,46.88-0.004c1.093-0.121,2.464-0.794,3.091-1.659c9.335-12.852,17.33-26.498,23.728-41.049
		c0.481-1.095,0.602-2.747,0.132-3.804c-6.389-14.335-14.132-27.912-23.468-40.539c-0.742-1.006-2.311-1.848-3.567-1.958
		C131.812,61.033,123.999,60.587,116.242,60.066z M43.758,73.32c-8.332,1.848-22.757,11.58-28.521,19.198
		c-6.91,9.134-6.708,18.981,0.507,27.914c5.921,7.33,13.677,12.148,22.002,16.195c1.943,0.944,3.967,1.725,6.101,2.648
		c0.382-1.076,0.629-1.693,0.823-2.326c2.354-7.647,4.199-15.5,7.206-22.88c2.238-5.483,2.889-10.342-0.116-15.524
		c-0.57-0.985-0.858-2.147-1.202-3.25C48.298,88.038,46.063,80.776,43.758,73.32z M123.652,184.988
		c7.393,7.441,23.14,14.82,32.684,15.523c9.338,0.684,16.646-2.854,20.731-11.299c2.187-4.516,3.386-9.611,4.382-14.574
		c1.476-7.353,0.813-14.766-0.455-22.257c-0.813,0.077-1.376,0.075-1.916,0.192c-10.182,2.188-20.374,4.345-30.528,6.657
		c-1.18,0.268-2.359,1.249-3.191,2.204c-3.688,4.227-7.112,8.689-10.893,12.824C131.082,177.957,127.355,181.338,123.652,184.988z
		 M108.884,27.512c-0.858-0.953-1.237-1.535-1.758-1.926c-7.395-5.533-15.244-10.264-24.239-12.698
		c-14.27-3.86-24.954,1.219-29.529,13.963c-3.098,8.626-3.462,17.564-2.739,26.593c0.176,2.168,0.511,4.325,0.73,6.125
		c10.73-2.163,21.116-4.19,31.463-6.407c1.535-0.33,3.2-1.257,4.258-2.411c3.917-4.273,7.476-8.873,11.416-13.127
		C101.694,34.162,105.25,31.021,108.884,27.512z M180.96,59.877c1.947-11.063,1.771-21.903-1.72-32.473
		c-3.774-11.435-13.595-17.507-24.593-15.637c-10.955,1.861-20.293,7.174-29.127,13.591c-1.689,1.227-1.569,2.121-0.15,3.645
		c6.843,7.348,13.512,14.855,20.335,22.224c0.833,0.898,2.141,1.598,3.345,1.858c3.204,0.695,6.503,0.946,9.703,1.648
		C166.073,56.336,173.356,58.105,180.96,59.877z M188.425,138.999c0.648-0.1,1.042-0.085,1.371-0.222
		c9.071-3.791,17.653-8.431,24.489-15.632c10.531-11.089,10.651-22.334,0.546-33.348c-7.013-7.644-15.901-12.458-25.315-16.426
		c-0.303-0.126-0.721,0.027-0.516,0.014c-3.632,10.6-7.201,20.87-10.614,31.191c-0.376,1.14-0.105,2.66,0.292,3.862
		c2.075,6.319,4.363,12.568,6.426,18.891C186.347,131.141,187.311,135.047,188.425,138.999z M108.375,185.74
		c-7.529-8.639-14.731-16.946-22.016-25.181c-0.633-0.715-1.756-1.19-2.729-1.38c-4.161-0.815-8.387-1.322-12.523-2.241
		c-5.74-1.276-11.418-2.812-17.119-4.25c-1.369-0.345-2.745-0.818-2.969,1.345c-1.115,10.725-1.364,21.386,2.48,31.718
		c3.684,9.891,11.831,15.543,21.801,14.789C88.169,199.568,98.539,192.967,108.375,185.74z M173.113,119.263
		c-0.321,0.002-0.642,0.002-0.965,0.004c-5.59,9.65-11.182,19.299-16.772,28.947c0.128,0.252,0.256,0.503,0.384,0.754
		c7.396-1.94,14.809-3.83,22.166-5.91c0.602-0.171,1.357-1.763,1.172-2.464C177.205,133.456,175.133,126.366,173.113,119.263z
		 M172.052,92.999c0.334-0.023,0.667-0.046,1-0.068c2.042-7.108,4.142-14.201,6.036-21.349c0.177-0.667-0.775-2.226-1.484-2.438
		c-4.981-1.497-10.025-2.799-15.078-4.055c-2.235-0.553-4.536-0.848-7.381-1.363C161.067,73.98,166.561,83.489,172.052,92.999z
		 M59.478,93.001c0.304-0.012,0.61-0.027,0.916-0.04c5.495-9.518,10.988-19.035,16.716-28.959c-1.146,0-2.01-0.157-2.796,0.025
		c-5.069,1.183-10.151,2.329-15.171,3.699c-6.345,1.733-6.435,1.852-4.729,8.195C55.954,81.656,57.777,87.312,59.478,93.001z
		 M98.774,51.036c11.984,0,22.973,0,33.949,0c0.026-0.45,0.127-0.716,0.038-0.809c-5.028-5.33-10.021-10.689-15.191-15.88
		c-0.481-0.482-2.419-0.269-3.079,0.308c-2.826,2.477-5.489,5.15-8.087,7.869C103.967,45.074,101.686,47.774,98.774,51.036z
		 M60.267,119.303c-0.314-0.009-0.627-0.018-0.943-0.028c-2.012,7.111-4.05,14.214-6.02,21.335c-0.529,1.92,0.917,2.587,2.358,3
		c3.617,1.033,7.239,2.067,10.897,2.929c3.399,0.802,6.851,1.379,10.712,2.142C71.405,138.542,65.837,128.923,60.267,119.303z
		 M133.118,161.082c-11.4,0-22.509,0-33.799,0c0.181,0.462,0.227,0.877,0.456,1.118c5.01,5.239,10.047,10.453,15.059,15.689
		c1.259,1.318,2.221,0.605,3.163-0.369c4.712-4.859,9.427-9.716,14.106-14.603C132.522,162.478,132.718,161.825,133.118,161.082z"/>
</g>
</svg>
