<?xml version="1.0" encoding="utf-8"?>
<!-- Generator: Adobe Illustrator 16.0.0, SVG Export Plug-In . SVG Version: 6.00 Build 0)  -->
<!DOCTYPE svg PUBLIC "-//W3C//DTD SVG 1.1//EN" "http://www.w3.org/Graphics/SVG/1.1/DTD/svg11.dtd">
<svg version="1.1" id="Layer_1" xmlns="http://www.w3.org/2000/svg" xmlns:xlink="http://www.w3.org/1999/xlink" x="0px" y="0px"
	 width="232.435px" height="212.274px" viewBox="0 0 232.435 212.274" enable-background="new 0 0 232.435 212.274"
	 xml:space="preserve">
<g>
	<g>
		<linearGradient id="SVGID_1_" gradientUnits="userSpaceOnUse" x1="510.7168" y1="84.6128" x2="523.7275" y2="62.0775">
			<stop  offset="0" style="stop-color:#AB7B2B"/>
			<stop  offset="0.0555" style="stop-color:#B3802A"/>
			<stop  offset="0.2299" style="stop-color:#C88E28"/>
			<stop  offset="0.4244" style="stop-color:#D79826"/>
			<stop  offset="0.6531" style="stop-color:#E09D25"/>
			<stop  offset="1" style="stop-color:#E39F25"/>
		</linearGradient>
		<polygon fill="url(#SVGID_1_)" points="499.129,61.33 510.815,84.669 533.468,88.557 529.176,65.223 499.129,61.33 		"/>
		<linearGradient id="SVGID_2_" gradientUnits="userSpaceOnUse" x1="579.6045" y1="90.9868" x2="599.978" y2="55.6988">
			<stop  offset="0" style="stop-color:#AB7B2B"/>
			<stop  offset="0.0555" style="stop-color:#B3802A"/>
			<stop  offset="0.2299" style="stop-color:#C88E28"/>
			<stop  offset="0.4244" style="stop-color:#D79826"/>
			<stop  offset="0.6531" style="stop-color:#E09D25"/>
			<stop  offset="1" style="stop-color:#E39F25"/>
		</linearGradient>
		<polygon fill="url(#SVGID_2_)" points="609.731,61.33 579.685,65.223 575.396,88.557 598.045,84.669 609.731,61.33 		"/>
	</g>
	<g>
		<linearGradient id="SVGID_3_" gradientUnits="userSpaceOnUse" x1="479.5947" y1="170.6074" x2="623.6538" y2="-78.9102">
			<stop  offset="0" style="stop-color:#AB7B2B"/>
			<stop  offset="0.0555" style="stop-color:#B3802A"/>
			<stop  offset="0.2299" style="stop-color:#C88E28"/>
			<stop  offset="0.4244" style="stop-color:#D79826"/>
			<stop  offset="0.6531" style="stop-color:#E09D25"/>
			<stop  offset="1" style="stop-color:#E39F25"/>
		</linearGradient>
		<path fill="url(#SVGID_3_)" d="M593.936,191.005l-16.047-20.398l-17.21,4.09h-12.496l-17.216-4.09l-16.042,20.398l-76.713-90.84
			l30.464-61.606l-11.45-61.062l10.077-46.073l27.118,45.314l43.152,24.233h33.715l43.15-24.233l27.114-45.314l10.08,46.073
			l-11.454,61.062l30.468,61.606L593.936,191.005z M584.988,150.267l9.448,12.014l54.664-64.736l-27.876-56.372l11.045-58.891
			l-1.153,6.154l-55.079,30.688h-43.214l-56.524-31.291l0.292-5.551l11.043,58.891l-27.871,56.372l54.66,64.736l9.449-12.014
			l26.434,6.281h8.248L584.988,150.267z"/>
	</g>
</g>
<g>
	<path fill="#AA7B2B" d="M472.455,205.569v35.01h21.001v8.738h-31.502v-43.748H472.455z"/>
	<path fill="#AA7B2B" d="M503.205,205.569l9.528,15.171l9.529-15.171h11.894l-16.204,24.996v18.752h-10.437v-18.752l-16.172-24.996
		H503.205z"/>
	<path fill="#AA7B2B" d="M576.802,229.751v-24.289h10.533v44.752l-31.502-25.131v24.289h-10.501v-44.725L576.802,229.751z"/>
	<path fill="#AA7B2B" d="M610.566,205.569l8.913,13.001l8.944-13.001h12.057l-14.974,21.848l14.974,21.9h-12.057l-8.944-13.053
		l-8.913,13.053l-12.057-0.026l14.908-21.874l-14.908-21.848H610.566z"/>
</g>
<g>
	<g>
		<linearGradient id="SVGID_4_" gradientUnits="userSpaceOnUse" x1="-227.8818" y1="136.6748" x2="-220.1524" y2="123.287">
			<stop  offset="0" style="stop-color:#AD7A15"/>
			<stop  offset="0.0496" style="stop-color:#B47F12"/>
			<stop  offset="0.2251" style="stop-color:#C98D0A"/>
			<stop  offset="0.4208" style="stop-color:#D89604"/>
			<stop  offset="0.6509" style="stop-color:#E19C01"/>
			<stop  offset="1" style="stop-color:#E49E00"/>
		</linearGradient>
		<path fill="url(#SVGID_4_)" d="M-215.583,128.492l-10.837-5.453l-13.135,6.429l23.972,11.881c0.58,0.285,1.055-0.01,1.055-0.657
			v-10.507C-214.528,129.539-215.003,128.775-215.583,128.492z"/>
		<linearGradient id="SVGID_5_" gradientUnits="userSpaceOnUse" x1="-241.1138" y1="130.3711" x2="-229.6102" y2="110.4463">
			<stop  offset="0" style="stop-color:#AD7A15"/>
			<stop  offset="0.0496" style="stop-color:#B47F12"/>
			<stop  offset="0.2251" style="stop-color:#C98D0A"/>
			<stop  offset="0.4208" style="stop-color:#D89604"/>
			<stop  offset="0.6509" style="stop-color:#E19C01"/>
			<stop  offset="1" style="stop-color:#E49E00"/>
		</linearGradient>
		<path fill="url(#SVGID_5_)" d="M-232.632,108.515l-11.392,5.471c-0.58,0.282-1.054,1.043-1.054,1.691v10.506
			c0,0.647,0.474,0.943,1.054,0.659l24.525-11.9L-232.632,108.515z"/>
		<g>
			<linearGradient id="SVGID_6_" gradientUnits="userSpaceOnUse" x1="-228.1582" y1="107.6431" x2="-221.1892" y2="95.5723">
				<stop  offset="0" style="stop-color:#AD7A15"/>
				<stop  offset="0.0496" style="stop-color:#B47F12"/>
				<stop  offset="0.2251" style="stop-color:#C98D0A"/>
				<stop  offset="0.4208" style="stop-color:#D89604"/>
				<stop  offset="0.6509" style="stop-color:#E19C01"/>
				<stop  offset="1" style="stop-color:#E49E00"/>
			</linearGradient>
			<path fill="url(#SVGID_6_)" d="M-215.583,99.444l-11.304-5.574l-13.133,6.429l24.437,12.002c0.58,0.285,1.055-0.011,1.055-0.658
				v-10.506C-214.528,100.491-215.003,99.728-215.583,99.444z"/>
		</g>
		<linearGradient id="SVGID_7_" gradientUnits="userSpaceOnUse" x1="-239.3511" y1="100.8501" x2="-220.2555" y2="67.7756">
			<stop  offset="0" style="stop-color:#AD7A15"/>
			<stop  offset="0.0496" style="stop-color:#B47F12"/>
			<stop  offset="0.2251" style="stop-color:#C98D0A"/>
			<stop  offset="0.4208" style="stop-color:#D89604"/>
			<stop  offset="0.6509" style="stop-color:#E19C01"/>
			<stop  offset="1" style="stop-color:#E49E00"/>
		</linearGradient>
		<path fill="url(#SVGID_7_)" d="M-214.528,82.088c0,0.647-0.475,1.409-1.055,1.692l-28.441,13.922
			c-0.58,0.282-1.054-0.013-1.054-0.66V86.538c0-0.647,0.474-1.409,1.054-1.693l28.441-13.921c0.58-0.285,1.055,0.012,1.055,0.659
			V82.088z"/>
	</g>
	<linearGradient id="SVGID_8_" gradientUnits="userSpaceOnUse" x1="-285.377" y1="205.873" x2="-170.1808" y2="6.3474">
		<stop  offset="0" style="stop-color:#AD7A15"/>
		<stop  offset="0.0496" style="stop-color:#B47F12"/>
		<stop  offset="0.2251" style="stop-color:#C98D0A"/>
		<stop  offset="0.4208" style="stop-color:#D89604"/>
		<stop  offset="0.6509" style="stop-color:#E19C01"/>
		<stop  offset="1" style="stop-color:#E49E00"/>
	</linearGradient>
	<path fill-rule="evenodd" clip-rule="evenodd" fill="url(#SVGID_8_)" d="M-152.328,47.483c-0.437,4.614-0.789,9.237-1.35,13.834
		c-0.21,1.74,0.521,2.366,1.954,2.976c9.468,4.035,18.499,8.833,26.141,15.867c5.561,5.116,9.965,11.023,12.017,18.447
		c2.942,10.653-0.233,19.859-6.957,28.041c-8.072,9.822-18.825,15.91-30.318,20.76c-2.621,1.105-3.016,2.35-2.707,5.015
		c1.562,13.556,1.722,27.061-4.361,39.76c-6.062,12.664-16.483,18.217-29.041,17.824c-9.053-0.283-17.582-3.574-25.418-8.189
		c-4.567-2.689-8.974-5.684-13.264-8.803c-1.788-1.301-2.875-1.088-4.469,0.154c-8.608,6.697-17.938,12.072-28.501,15.111
		c-10.686,3.076-20.806,2.387-29.939-4.541c-6.269-4.754-9.802-11.342-11.902-18.736c-3.062-10.777-2.973-21.784-1.531-32.754
		c0.383-2.924-0.459-3.852-2.863-4.858c-9.412-3.942-18.217-8.932-25.75-15.931c-4.959-4.606-8.972-9.923-11.046-16.417
		c-3.176-9.954-1.032-19.079,4.962-27.41c6.026-8.371,14.248-14.082,23.227-18.801c3.242-1.706,6.604-3.188,9.962-4.659
		c1.534-0.67,1.693-1.51,1.514-3.157c-1.417-12.934-1.949-25.842,3.029-38.273c6.446-16.1,21.146-23.54,38.036-19.337
		c11.266,2.804,21.181,8.309,30.255,15.373c2.165,1.685,3.595,1.655,5.728-0.006c9-7.004,18.83-12.447,29.977-15.295
		c17.77-4.54,33.384,4.017,39.16,21.431C-153.354,32.244-152.495,39.776-152.328,47.483z M-227.758,60.066
		c-7.798,0.519-15.517,0.947-23.211,1.626c-1.35,0.118-3.062,0.947-3.842,2.009c-9.238,12.574-16.954,26.059-23.332,40.292
		c-0.509,1.139-0.434,2.911,0.079,4.076c6.369,14.458,14.303,28.035,23.561,40.826c0.679,0.937,2.139,1.699,3.315,1.827
		c15.621,1.693,31.259,1.687,46.88-0.004c1.093-0.121,2.464-0.794,3.091-1.659c9.335-12.852,17.33-26.498,23.728-41.049
		c0.481-1.095,0.602-2.747,0.132-3.804c-6.389-14.335-14.132-27.912-23.468-40.539c-0.742-1.006-2.311-1.848-3.567-1.958
		C-212.188,61.033-220.001,60.587-227.758,60.066z M-300.242,73.32c-8.332,1.848-22.757,11.58-28.521,19.198
		c-6.91,9.134-6.708,18.981,0.507,27.914c5.921,7.33,13.677,12.148,22.002,16.195c1.943,0.944,3.967,1.725,6.101,2.648
		c0.382-1.076,0.629-1.693,0.823-2.326c2.354-7.647,4.199-15.5,7.206-22.88c2.238-5.483,2.889-10.342-0.116-15.524
		c-0.57-0.985-0.858-2.147-1.202-3.25C-295.702,88.038-297.937,80.776-300.242,73.32z M-220.348,184.988
		c7.393,7.441,23.14,14.82,32.684,15.523c9.338,0.684,16.646-2.854,20.731-11.299c2.187-4.516,3.386-9.611,4.382-14.574
		c1.476-7.353,0.813-14.766-0.455-22.257c-0.813,0.077-1.376,0.075-1.916,0.192c-10.182,2.188-20.374,4.345-30.528,6.657
		c-1.18,0.268-2.359,1.249-3.191,2.204c-3.688,4.227-7.112,8.689-10.893,12.824C-212.918,177.957-216.645,181.338-220.348,184.988z
		 M-235.116,27.512c-0.858-0.953-1.237-1.535-1.758-1.926c-7.395-5.533-15.244-10.264-24.239-12.698
		c-14.27-3.86-24.954,1.219-29.529,13.963c-3.098,8.626-3.462,17.564-2.739,26.593c0.176,2.168,0.511,4.325,0.73,6.125
		c10.73-2.163,21.116-4.19,31.463-6.407c1.535-0.33,3.2-1.257,4.258-2.411c3.917-4.273,7.476-8.873,11.416-13.127
		C-242.306,34.162-238.75,31.021-235.116,27.512z M-163.04,59.877c1.947-11.063,1.771-21.903-1.72-32.473
		c-3.774-11.435-13.595-17.507-24.593-15.637c-10.955,1.861-20.293,7.174-29.127,13.591c-1.689,1.227-1.569,2.121-0.15,3.645
		c6.843,7.348,13.512,14.855,20.335,22.224c0.833,0.898,2.141,1.598,3.345,1.858c3.204,0.695,6.503,0.946,9.703,1.648
		C-177.927,56.336-170.644,58.105-163.04,59.877z M-155.575,138.999c0.648-0.1,1.042-0.085,1.371-0.222
		c9.071-3.791,17.653-8.431,24.489-15.632c10.531-11.089,10.651-22.334,0.546-33.348c-7.013-7.644-15.901-12.458-25.315-16.426
		c-0.303-0.126-0.721,0.027-0.516,0.014c-3.632,10.6-7.201,20.87-10.614,31.191c-0.376,1.14-0.105,2.66,0.292,3.862
		c2.075,6.319,4.363,12.568,6.426,18.891C-157.653,131.141-156.689,135.047-155.575,138.999z M-235.625,185.74
		c-7.529-8.639-14.731-16.946-22.016-25.181c-0.633-0.715-1.756-1.19-2.729-1.38c-4.161-0.815-8.387-1.322-12.523-2.241
		c-5.74-1.276-11.418-2.812-17.119-4.25c-1.369-0.345-2.745-0.818-2.969,1.345c-1.115,10.725-1.364,21.386,2.48,31.718
		c3.684,9.891,11.831,15.543,21.801,14.789C-255.831,199.568-245.461,192.967-235.625,185.74z M-170.887,119.263
		c-0.321,0.002-0.642,0.002-0.965,0.004c-5.59,9.65-11.182,19.299-16.772,28.947c0.128,0.252,0.256,0.503,0.384,0.754
		c7.396-1.94,14.809-3.83,22.166-5.91c0.602-0.171,1.357-1.763,1.172-2.464C-166.795,133.456-168.867,126.366-170.887,119.263z
		 M-171.948,92.999c0.334-0.023,0.667-0.046,1-0.068c2.042-7.108,4.142-14.201,6.036-21.349c0.177-0.667-0.775-2.226-1.484-2.438
		c-4.981-1.497-10.025-2.799-15.078-4.055c-2.235-0.553-4.536-0.848-7.381-1.363C-182.933,73.98-177.439,83.489-171.948,92.999z
		 M-284.522,93.001c0.304-0.012,0.61-0.027,0.916-0.04c5.495-9.518,10.988-19.035,16.716-28.959c-1.146,0-2.01-0.157-2.796,0.025
		c-5.069,1.183-10.151,2.329-15.171,3.699c-6.345,1.733-6.435,1.852-4.729,8.195C-288.046,81.656-286.223,87.312-284.522,93.001z
		 M-245.226,51.036c11.984,0,22.973,0,33.949,0c0.026-0.45,0.127-0.716,0.038-0.809c-5.028-5.33-10.021-10.689-15.191-15.88
		c-0.481-0.482-2.419-0.269-3.079,0.308c-2.826,2.477-5.489,5.15-8.087,7.869C-240.033,45.074-242.314,47.774-245.226,51.036z
		 M-283.733,119.303c-0.314-0.009-0.627-0.018-0.943-0.028c-2.012,7.111-4.05,14.214-6.02,21.335c-0.529,1.92,0.917,2.587,2.358,3
		c3.617,1.033,7.239,2.067,10.897,2.929c3.399,0.802,6.851,1.379,10.712,2.142C-272.595,138.542-278.163,128.923-283.733,119.303z
		 M-210.882,161.082c-11.4,0-22.509,0-33.799,0c0.181,0.462,0.227,0.877,0.456,1.118c5.01,5.239,10.047,10.453,15.059,15.689
		c1.259,1.318,2.221,0.605,3.163-0.369c4.712-4.859,9.427-9.716,14.106-14.603C-211.478,162.478-211.282,161.825-210.882,161.082z"
		/>
</g>
<g>
	<g>
		<linearGradient id="SVGID_9_" gradientUnits="userSpaceOnUse" x1="-334.9092" y1="452.8926" x2="-199.3215" y2="218.0479">
			<stop  offset="0" style="stop-color:#AD7A15"/>
			<stop  offset="0.0496" style="stop-color:#B47F12"/>
			<stop  offset="0.2251" style="stop-color:#C98D0A"/>
			<stop  offset="0.4208" style="stop-color:#D89604"/>
			<stop  offset="0.6509" style="stop-color:#E19C01"/>
			<stop  offset="1" style="stop-color:#E49E00"/>
		</linearGradient>
		<path fill="url(#SVGID_9_)" d="M-152.898,426.09h-228.435V244.851h228.435V426.09z M-362.953,407.709h191.673V263.231h-191.673
			V407.709z"/>
	</g>
	<g>
		
			<linearGradient id="SVGID_10_" gradientUnits="userSpaceOnUse" x1="-3148.0513" y1="5184.3818" x2="-3115.6304" y2="5128.2271" gradientTransform="matrix(0.7071 0.7071 -0.7071 0.7071 5538.8965 -1092.0797)">
			<stop  offset="0" style="stop-color:#AD7A15"/>
			<stop  offset="0.0496" style="stop-color:#B47F12"/>
			<stop  offset="0.2251" style="stop-color:#C98D0A"/>
			<stop  offset="0.4208" style="stop-color:#D89604"/>
			<stop  offset="0.6509" style="stop-color:#E19C01"/>
			<stop  offset="1" style="stop-color:#E49E00"/>
		</linearGradient>
		<polygon fill="url(#SVGID_10_)" points="-332.786,387.841 -345.783,374.844 -313.34,342.4 -345.783,309.959 -332.786,296.962 
			-287.347,342.4 		"/>
	</g>
	<g>
		<linearGradient id="SVGID_11_" gradientUnits="userSpaceOnUse" x1="-243.5518" y1="392.8701" x2="-215.6277" y2="344.5042">
			<stop  offset="0" style="stop-color:#AD7A15"/>
			<stop  offset="0.0496" style="stop-color:#B47F12"/>
			<stop  offset="0.2251" style="stop-color:#C98D0A"/>
			<stop  offset="0.4208" style="stop-color:#D89604"/>
			<stop  offset="0.6509" style="stop-color:#E19C01"/>
			<stop  offset="1" style="stop-color:#E49E00"/>
		</linearGradient>
		<rect x="-269.521" y="359.497" fill="url(#SVGID_11_)" width="79.861" height="18.38"/>
	</g>
</g>
<g display="none">
	<path display="inline" fill-rule="evenodd" clip-rule="evenodd" fill="#8F96AF" d="M116.212-0.018
		c-37.697,0-68.273,30.566-68.273,68.282c0,30.157,19.564,55.748,46.694,64.776c3.414,0.631,4.666-1.481,4.666-3.29
		c0-1.621-0.064-5.911-0.098-11.607c-18.992,4.125-22.995-9.153-22.995-9.153c-3.102-7.891-7.58-9.986-7.58-9.986
		c-6.196-4.242,0.467-4.151,0.467-4.151c6.852,0.482,10.463,7.031,10.463,7.031c6.09,10.439,15.978,7.425,19.867,5.674
		c0.622-4.413,2.383-7.417,4.329-9.127c-15.16-1.72-31.099-7.581-31.099-33.744c0-7.45,2.661-13.549,7.033-18.321
		c-0.706-1.727-3.046-8.669,0.67-18.066c0,0,5.73-1.835,18.771,7c5.444-1.516,11.29-2.271,17.094-2.301
		c5.797,0.029,11.641,0.785,17.093,2.301c13.032-8.834,18.755-7,18.755-7c3.724,9.397,1.384,16.339,0.679,18.066
		c4.38,4.772,7.024,10.871,7.024,18.321c0,26.229-15.964,31.999-31.172,33.693c2.446,2.105,4.631,6.271,4.631,12.639
		c0,9.129-0.082,16.496-0.082,18.731c0,1.825,1.229,3.953,4.693,3.283c27.103-9.047,46.652-34.62,46.652-64.769
		C184.494,30.549,153.919-0.018,116.212-0.018z"/>
	<g display="inline">
		<path fill="#8F96AF" d="M52.852,180.406H35.528c-0.449,0-0.81,0.361-0.81,0.811v8.465c0,0.451,0.36,0.811,0.81,0.811h6.755v10.527
			c0,0-1.516,0.517-5.715,0.517c-4.943,0-11.861-1.812-11.861-17.012c0-15.21,7.203-17.208,13.956-17.208
			c5.854,0,8.376,1.032,9.98,1.523c0.5,0.156,0.966-0.344,0.966-0.794l1.933-8.178c0-0.213-0.066-0.466-0.304-0.639
			c-0.654-0.458-4.625-2.684-14.67-2.684c-11.559,0-23.419,4.919-23.419,28.569c0,23.65,13.579,27.179,25.024,27.179
			c9.472,0,15.226-4.054,15.226-4.054c0.229-0.129,0.263-0.457,0.263-0.612v-26.409C53.662,180.768,53.294,180.406,52.852,180.406z"
			/>
		<path fill="#8F96AF" d="M142.121,159.376c0-0.451-0.35-0.811-0.803-0.811h-9.749c-0.449,0-0.811,0.36-0.811,0.811v18.853h-15.201
			v-18.853c0-0.451-0.359-0.811-0.803-0.811h-9.758c-0.442,0-0.802,0.36-0.802,0.811v51.041c0,0.451,0.359,0.818,0.802,0.818h9.758
			c0.443,0,0.803-0.367,0.803-0.818v-21.833h15.201l-0.023,21.833c0,0.451,0.359,0.818,0.811,0.818h9.772
			c0.443,0,0.803-0.367,0.803-0.818V159.376z"/>
		<g>
			<g>
				<path fill="#8F96AF" d="M71.255,166.072c0-3.512-2.816-6.344-6.287-6.344s-6.288,2.833-6.288,6.344s2.817,6.361,6.288,6.361
					S71.255,169.584,71.255,166.072z"/>
				<path fill="#8F96AF" d="M70.559,199.653c0-1.311,0-23.561,0-23.561c0-0.451-0.36-0.819-0.811-0.819H60.03
					c-0.45,0-0.852,0.467-0.852,0.909c0,0,0,28.349,0,33.76c0,0.991,0.621,1.285,1.424,1.285c0,0,4.152,0,8.761,0
					c0.958,0,1.195-0.475,1.195-1.301C70.559,208.116,70.559,201.028,70.559,199.653z"/>
			</g>
		</g>
		<path fill="#8F96AF" d="M179.188,175.355h-9.675c-0.442,0-0.803,0.36-0.803,0.812V201.2c0,0-2.464,1.793-5.952,1.793
			c-3.486,0-4.411-1.58-4.411-4.994c0-3.422,0-21.832,0-21.832c0-0.451-0.359-0.812-0.812-0.812h-9.821
			c-0.443,0-0.802,0.36-0.802,0.812c0,0,0,13.334,0,23.477c0,10.151,5.656,12.639,13.434,12.639c6.384,0,11.532-3.527,11.532-3.527
			s0.247,1.859,0.353,2.08c0.114,0.222,0.401,0.441,0.711,0.441l6.256-0.032c0.443,0,0.803-0.36,0.803-0.81v-34.268
			C180,175.716,179.641,175.355,179.188,175.355z"/>
		<path fill="#8F96AF" d="M205.647,174.209c-5.502,0-9.234,2.449-9.234,2.449v-17.282c0-0.451-0.36-0.811-0.811-0.811h-9.782
			c-0.441,0-0.803,0.36-0.803,0.811v51.041c0,0.451,0.361,0.818,0.81,0.818c0,0,6.779,0,6.787,0c0.303,0,0.532-0.163,0.704-0.434
			c0.172-0.277,0.409-2.357,0.409-2.357s4.003,3.79,11.575,3.79c8.89,0,13.982-4.51,13.982-20.235
			C219.285,176.264,211.148,174.209,205.647,174.209z M201.832,202.968c-3.363-0.106-5.641-1.63-5.641-1.63v-16.159
			c0,0,2.252-1.383,5.002-1.63c3.487-0.31,6.844,0.747,6.844,9.056C208.037,201.379,206.523,203.106,201.832,202.968z"/>
		<path fill="#8F96AF" d="M98.588,175.273h-7.31l-0.018-9.667c0-0.369-0.188-0.548-0.606-0.548h-9.972
			c-0.392,0-0.597,0.171-0.597,0.539v9.996c0,0-5.002,1.203-5.336,1.302c-0.336,0.098-0.58,0.408-0.58,0.777v6.279
			c0,0.451,0.358,0.811,0.801,0.811h5.115c0,0,0,6.565,0,15.104c0,11.216,7.867,12.311,13.173,12.311
			c2.433,0,5.329-0.775,5.812-0.948c0.286-0.105,0.458-0.408,0.458-0.737l0.009-6.9c0-0.45-0.385-0.818-0.811-0.818
			s-1.516,0.18-2.646,0.18c-3.593,0-4.804-1.678-4.804-3.839s0-14.351,0-14.351h7.31c0.45,0,0.811-0.359,0.811-0.811v-7.867
			C99.398,175.634,99.038,175.273,98.588,175.273z"/>
	</g>
</g>
<g>
	<path fill-rule="evenodd" clip-rule="evenodd" fill="#8F96AF" d="M472.893,341.095c-0.075,3.387-1.477,5.541-3.846,7.255
		c-14.543,10.522-29.056,21.087-43.58,31.639c-5.259,3.817-10.537,7.615-15.763,11.475c-1.642,1.214-3.094,1.194-4.728,0.006
		c-19.869-14.466-39.76-28.897-59.635-43.354c-3.238-2.358-4.266-5.481-3.026-9.305c6.857-21.175,13.735-42.34,20.624-63.507
		c0.845-2.601,2.698-4.001,5.165-4.021c2.554-0.022,4.361,1.352,5.268,4.121c4.191,12.807,8.391,25.611,12.506,38.444
		c0.436,1.366,0.991,1.821,2.421,1.819c12.698-0.059,25.396-0.062,38.093,0c1.447,0.008,1.979-0.456,2.411-1.807
		c4.098-12.775,8.272-25.523,12.441-38.271c0.959-2.924,2.731-4.329,5.315-4.307c2.586,0.021,4.312,1.422,5.273,4.375
		c6.835,20.983,13.655,41.971,20.467,62.965C472.604,339.554,472.759,340.535,472.893,341.095z M388.456,321.665
		c6.289,19.37,12.508,38.516,18.882,58.147c6.401-19.69,12.626-38.841,18.906-58.147
		C413.579,321.665,401.148,321.665,388.456,321.665z M399.011,373.942c-0.173-0.774-0.207-1.007-0.281-1.227
		c-5.4-16.689-10.817-33.374-16.19-50.072c-0.331-1.022-0.937-1.09-1.802-1.088c-7.118,0.021-14.234,0.012-21.351,0.018
		c-0.275,0-0.549,0.062-1.12,0.129C371.858,339.13,385.267,356.319,399.011,373.942z M456.536,321.569
		c-8.01,0-15.5-0.028-22.983,0.063c-0.507,0.006-1.262,0.829-1.456,1.42c-4.009,12.144-7.954,24.31-11.906,36.471
		c-1.503,4.62-2.984,9.243-4.476,13.864c0.092,0.045,0.185,0.088,0.277,0.131C429.41,356.327,442.828,339.134,456.536,321.569z
		 M390.921,373.837c0.08-0.08,0.16-0.163,0.242-0.244c-12.604-16.154-25.207-32.312-38.026-48.75
		c-1.686,5.164-3.154,9.986-4.856,14.729c-0.712,1.973-0.374,3.106,1.355,4.344c11.168,8.002,22.26,16.115,33.378,24.188
		C385.649,370.017,388.286,371.927,390.921,373.837z M461.569,324.835c-12.822,16.43-25.449,32.604-38.069,48.779
		c5.604-3.652,10.951-7.541,16.301-11.43c8.553-6.214,17.127-12.403,25.632-18.686c0.692-0.512,1.47-1.818,1.279-2.482
		C465.16,335.706,463.388,330.458,461.569,324.835z M380.194,315.538c-3.986-12.246-7.913-24.321-11.844-36.395
		c-0.136,0.01-0.273,0.023-0.409,0.036c-3.919,12.085-7.834,24.17-11.784,36.358C364.218,315.538,372.057,315.538,380.194,315.538z
		 M446.741,279.206c-0.144-0.008-0.286-0.016-0.429-0.026c-3.919,12.067-7.839,24.138-11.784,36.3c8.101,0,15.959,0,23.999,0
		C454.559,303.261,450.651,291.235,446.741,279.206z"/>
	<path fill-rule="evenodd" clip-rule="evenodd" fill="#8F96AF" d="M339.978,420.18c-1.2,2.077-2.331,4.038-3.521,6.095
		c-5.019-3.801-10.559-5.061-16.562-4.715c-8.495,0.488-14.73,5.25-17.205,13.425c-2.018,6.672-2.072,13.436-0.19,20.143
		c2.329,8.287,8.163,13.135,16.769,13.572c3.277,0.168,6.609-0.57,9.896-1.031c0.52-0.078,1.326-0.881,1.333-1.359
		c0.097-5.621,0.062-11.242,0.062-17.061c-4.92,0-9.466,0-14.156,0c0-2.572,0-4.949,0-7.461c7.271,0,14.535,0,21.914,0
		c0.037,0.336,0.093,0.627,0.094,0.922c0.09,9.535,0.175,19.066,0.256,28.6c0.006,0.85,0.154,1.652-1.014,2.066
		c-8.396,3.002-16.959,4.219-25.699,1.984c-8.848-2.264-14.694-7.986-17.425-16.658c-2.792-8.859-2.731-17.84,0.083-26.681
		c3.426-10.761,12.688-17.539,24.232-18.193c7.404-0.416,14.295,0.883,20.265,5.59C339.348,419.606,339.57,419.821,339.978,420.18z"
		/>
	<path fill-rule="evenodd" clip-rule="evenodd" fill="#8F96AF" d="M484.274,414.994c2.607,0,5.124,0,7.884,0
		c0,5.796,0,11.577,0,17.026c2.787-1.253,5.38-3.004,8.213-3.585c9.475-1.941,17.768,3.262,20.419,12.621
		c2.119,7.477,1.735,14.98-0.833,22.287c-2.684,7.627-8.314,11.869-16.262,12.799c-6.074,0.707-12.106,0.184-17.98-1.705
		c-1.038-0.334-1.449-0.836-1.449-1.967c-0.012-18.773-0.062-37.539-0.102-56.308C484.164,415.805,484.23,415.448,484.274,414.994z
		 M492.265,453.795c0,3.092,0,6.184,0,9.273c0,5.648,0.006,5.662,5.713,6.074c6.443,0.471,11.028-1.66,13.272-6.701
		c2.896-6.508,3.148-13.318,0.994-20.086c-1.271-3.992-4.327-6.012-8.531-6.26c-3.794-0.223-7.246,0.75-10.249,3.051
		c-0.61,0.467-1.128,1.459-1.148,2.221C492.205,445.51,492.265,449.654,492.265,453.795z"/>
	<path fill-rule="evenodd" clip-rule="evenodd" fill="#8F96AF" d="M473.717,475.334c-1.69,0-3.235,0.078-4.759-0.051
		c-0.435-0.039-1.021-0.611-1.182-1.062c-0.467-1.332-0.75-2.727-1.166-4.326c-4.032,5.582-9.537,7-15.796,6.428
		c-7.118-0.65-11.444-5.107-12.014-12.303c-0.708-8.941,3.988-14.9,13.297-16.285c3.883-0.58,7.88-0.371,11.822-0.514
		c0.551-0.02,1.102,0,1.643,0c1.723-7.814-3.145-12.869-11.561-11.615c-3.727,0.555-7.321,1.996-11.293,3.123
		c-0.646-1.094-1.571-2.67-2.776-4.725c2.582-1.406,5.002-2.995,7.627-4.097c4.663-1.961,9.591-2.348,14.578-1.506
		c7.1,1.199,11.392,6.136,11.543,13.774c0.205,10.652,0.128,21.305,0.164,31.957C473.848,474.432,473.782,474.734,473.717,475.334z
		 M465.815,453.229c-2.949,0-5.784-0.205-8.576,0.066c-2.109,0.207-4.294,0.746-6.207,1.639c-3.038,1.42-4.304,4.67-3.741,8.365
		c0.433,2.795,2.333,4.652,5.696,5.303c4.458,0.865,8.472-0.199,11.933-3.154c0.423-0.359,0.842-1,0.857-1.52
		C465.851,460.529,465.815,457.133,465.815,453.229z"/>
	<path fill-rule="evenodd" clip-rule="evenodd" fill="#8F96AF" d="M434.569,467.686c0,2.691,0,5.031,0,7.518
		c-10.87,0-21.669,0-32.705,0c0-20.02,0-40.037,0-60.185c2.502,0,5.07,0,7.92,0c0,17.469,0,34.958,0,52.667
		C418.188,467.686,426.317,467.686,434.569,467.686z"/>
	<path fill-rule="evenodd" clip-rule="evenodd" fill="#8F96AF" d="M378.959,435.76c-0.062,0.68-0.138,1.094-0.138,1.512
		c-0.006,7.805-0.036,15.611,0.007,23.416c0.028,4.727,2.687,7.707,7.36,8.191c1.829,0.189,3.691,0.029,5.759,0.029
		c0,2.07,0.058,4.102-0.051,6.125c-0.022,0.406-0.65,1.078-1.058,1.125c-4.35,0.516-8.694,0.496-12.734-1.455
		c-5.418-2.615-7.217-7.506-7.285-13.033c-0.166-13.254-0.088-26.51-0.107-39.763c-0.005-2.275-0.002-4.553-0.002-6.92
		c2.693,0,5.201,0,7.963,0c0,4.684,0,9.293,0,14.099c4.492,0,8.737,0,13.13,0c0,2.259,0,4.33,0,6.674
		C387.598,435.76,383.31,435.76,378.959,435.76z"/>
	<path fill-rule="evenodd" clip-rule="evenodd" fill="#8F96AF" d="M358.379,475.244c-2.662,0-5.117,0-7.688,0
		c0-15.359,0-30.615,0-45.988c2.571,0,5.071,0,7.688,0C358.379,444.586,358.379,459.842,358.379,475.244z"/>
	<path fill-rule="evenodd" clip-rule="evenodd" fill="#8F96AF" d="M350.711,414.987c2.589,0,5.083,0,7.68,0c0,2.591,0,5.085,0,7.701
		c-2.553,0-5.047,0-7.68,0C350.711,420.187,350.711,417.692,350.711,414.987z"/>
</g>
<g>
	<linearGradient id="SVGID_12_" gradientUnits="userSpaceOnUse" x1="2.1265" y1="82.0776" x2="187.6055" y2="82.0776">
		<stop  offset="0" style="stop-color:#AD7A15"/>
		<stop  offset="0.0496" style="stop-color:#B47F12"/>
		<stop  offset="0.2251" style="stop-color:#C98D0A"/>
		<stop  offset="0.4208" style="stop-color:#D89604"/>
		<stop  offset="0.6509" style="stop-color:#E19C01"/>
		<stop  offset="1" style="stop-color:#E49E00"/>
	</linearGradient>
	<path fill-rule="evenodd" clip-rule="evenodd" fill="url(#SVGID_12_)" d="M31.158,127.987c-2.875,0-5.529,0.002-8.181,0
		c-11.841-0.004-20.851-9.038-20.851-20.867c0.007-24.337,0.004-48.671,0.004-73.007c0-11.899,9.034-20.95,20.927-20.95
		c38.361-0.004,76.724-0.004,115.087,0c12.059,0,21.081,9.005,21.114,21.053c0.004,2.452,0.015,4.903-0.01,7.353
		c-0.006,0.66,0.12,1.025,0.854,1.284c12.438,4.415,19.404,14.367,19.374,27.593c-0.01,2.873,0.02,5.745-0.026,8.618
		c-0.014,0.841,0.254,1.366,0.925,1.902c4.508,3.604,7.057,8.3,7.122,14.093c0.106,9.293,0.19,18.593-0.039,27.884
		c-0.305,12.391-10.837,22.618-23.243,22.764c-8.277,0.101-16.562,0.081-24.841,0.004c-10.005-0.09-18.97-6.745-22.147-16.378
		c-0.356-1.074-0.811-1.379-1.935-1.375c-13.433,0.044-26.871,0.018-40.304,0.056c-0.748,0.002-1.589,0.241-2.229,0.628
		c-11.693,7.098-23.365,14.226-35.024,21.377c-1.508,0.925-2.99,1.402-4.626,0.473c-1.589-0.9-1.979-2.368-1.967-4.095
		c0.041-5.662,0.016-11.323,0.016-16.985C31.158,128.998,31.158,128.579,31.158,127.987z M38.873,140.173
		c0.511-0.272,0.876-0.448,1.222-0.66c9.944-6.069,19.872-12.166,29.849-18.181c0.988-0.594,2.276-0.972,3.429-0.979
		c13.686-0.065,27.375-0.041,41.062-0.041c0.486,0,0.972,0,1.528,0c0-0.707,0-1.211,0-1.715c0-7.604-0.025-15.207,0.006-22.813
		c0.025-6.133,2.487-11.119,7.296-14.917c0.604-0.477,0.808-0.95,0.804-1.69c-0.032-3.508-0.059-7.017,0.01-10.52
		c0.208-11.168,7.105-21.168,17.576-25.124c3.075-1.164,6.407-1.639,9.835-2.481c0-2.118,0.002-4.599-0.004-7.082
		c-0.012-7.425-5.524-13.046-12.933-13.048c-38.572-0.022-77.145-0.02-115.715-0.004c-7.4,0.004-13.005,5.61-13.012,13.005
		c-0.021,24.462-0.025,48.923,0.002,73.383c0.008,7.371,5.677,12.967,13.045,13c3.717,0.019,7.44,0.133,11.151-0.031
		c3.444-0.155,4.984,1.975,4.885,4.95c-0.149,4.514-0.039,9.039-0.039,13.557C38.873,139.191,38.873,139.601,38.873,140.173z
		 M151.865,84.683c-5.534,0-11.068-0.013-16.599,0.011c-1.007,0.004-2.038,0.072-3.016,0.293c-5.226,1.173-8.552,5.47-8.586,11.198
		c-0.05,8.36-0.025,16.724,0,25.087c0.002,1.134,0.082,2.287,0.293,3.401c1.505,7.827,8.041,13.307,16.04,13.37
		c7.645,0.057,15.291,0.023,22.933,0.012c9.817-0.016,16.863-7.011,16.911-16.828c0.038-8.32,0.026-16.641,0.002-24.961
		c-0.022-6.972-4.671-11.578-11.634-11.583C162.762,84.68,157.315,84.683,151.865,84.683z M131.747,77.074
		c13.421,0,26.632,0,39.991,0c0-2.616,0.012-5.27-0.002-7.92c-0.046-9.955-7.334-18.248-17.321-19.723
		c-9.493-1.4-18.878,4.646-21.766,13.987C131.27,67.886,131.945,72.457,131.747,77.074z"/>
	<linearGradient id="SVGID_13_" gradientUnits="userSpaceOnUse" x1="73.1577" y1="130.168" x2="230.3076" y2="130.168">
		<stop  offset="0" style="stop-color:#AD7A15"/>
		<stop  offset="0.0496" style="stop-color:#B47F12"/>
		<stop  offset="0.2251" style="stop-color:#C98D0A"/>
		<stop  offset="0.4208" style="stop-color:#D89604"/>
		<stop  offset="0.6509" style="stop-color:#E19C01"/>
		<stop  offset="1" style="stop-color:#E49E00"/>
	</linearGradient>
	<path fill-rule="evenodd" clip-rule="evenodd" fill="url(#SVGID_13_)" d="M201.276,176.12c0,1.414,0,2.674,0,3.935
		c-0.002,4.901-0.024,9.803,0.006,14.702c0.01,1.651-0.475,3.014-1.948,3.849c-1.525,0.864-2.97,0.544-4.417-0.343
		c-11.695-7.165-23.403-14.318-35.136-21.432c-0.705-0.428-1.637-0.68-2.465-0.682c-21.083-0.036-42.163-0.024-63.246-0.029
		c-10.367-0.005-18.841-6.875-20.486-17.103c-0.639-3.959-0.389-8.086-0.322-12.131c0.038-2.116,1.9-3.537,3.951-3.467
		c2.066,0.07,3.669,1.693,3.714,3.893c0.052,2.618,0.011,5.236,0.013,7.854c0.009,7.697,5.524,13.226,13.282,13.261
		c6.587,0.03,13.181,0.003,19.771,0.003c14.997,0,29.996,0.009,44.992-0.016c1.319-0.002,2.454,0.317,3.577,1.012
		c9.932,6.093,19.879,12.153,29.827,18.223c0.313,0.19,0.639,0.369,1.103,0.632c0.024-0.566,0.062-1.008,0.062-1.449
		c0.006-4.691-0.002-9.38,0.008-14.069c0.004-2.818,1.479-4.318,4.274-4.328c3.803-0.013,7.607,0.014,11.409-0.004
		c7.869-0.048,13.363-5.578,13.363-13.465c0.003-24.164,0.003-48.331,0-72.496c-0.002-7.96-5.488-13.442-13.473-13.46
		c-5.873-0.014-11.744,0.016-17.618-0.007c-3.01-0.011-4.894-2.334-4.089-4.971c0.49-1.596,1.864-2.72,3.574-2.726
		c6.678-0.022,13.359-0.209,20.026,0.056c10.666,0.423,19.261,9.583,19.265,20.236c0.016,24.714,0.016,49.43,0,74.144
		c-0.004,11.099-9.095,20.249-20.205,20.373C207.226,176.146,204.357,176.12,201.276,176.12z"/>
	<linearGradient id="SVGID_14_" gradientUnits="userSpaceOnUse" x1="27.1948" y1="42.6367" x2="112.6445" y2="42.6367">
		<stop  offset="0" style="stop-color:#AD7A15"/>
		<stop  offset="0.0496" style="stop-color:#B47F12"/>
		<stop  offset="0.2251" style="stop-color:#C98D0A"/>
		<stop  offset="0.4208" style="stop-color:#D89604"/>
		<stop  offset="0.6509" style="stop-color:#E19C01"/>
		<stop  offset="1" style="stop-color:#E49E00"/>
	</linearGradient>
	<path fill-rule="evenodd" clip-rule="evenodd" fill="url(#SVGID_14_)" d="M69.8,46.514c-12.753,0-25.504,0.004-38.257-0.002
		c-2.587,0-4.298-1.495-4.348-3.757c-0.045-2.125,1.455-3.794,3.616-3.967c0.754-0.061,1.517-0.018,2.278-0.018
		c24.874-0.002,49.745-0.002,74.617,0c0.423,0,0.848-0.022,1.267,0.012c2.155,0.178,3.712,1.857,3.67,3.939
		c-0.041,2.035-1.589,3.625-3.699,3.785c-0.376,0.027-0.759,0.009-1.14,0.009C95.138,46.514,82.47,46.514,69.8,46.514z"/>
	<linearGradient id="SVGID_15_" gradientUnits="userSpaceOnUse" x1="27.1963" y1="60.4976" x2="112.6533" y2="60.4976">
		<stop  offset="0" style="stop-color:#AD7A15"/>
		<stop  offset="0.0496" style="stop-color:#B47F12"/>
		<stop  offset="0.2251" style="stop-color:#C98D0A"/>
		<stop  offset="0.4208" style="stop-color:#D89604"/>
		<stop  offset="0.6509" style="stop-color:#E19C01"/>
		<stop  offset="1" style="stop-color:#E49E00"/>
	</linearGradient>
	<path fill-rule="evenodd" clip-rule="evenodd" fill="url(#SVGID_15_)" d="M69.947,64.336c-12.843,0-25.689,0.002-38.534-0.002
		c-2.609,0-4.28-1.598-4.214-3.989c0.054-1.954,1.542-3.521,3.503-3.671c0.378-0.027,0.759-0.016,1.142-0.016
		c25.394,0,50.787-0.004,76.181,0.007c0.668,0.002,1.371,0.009,2.001,0.2c1.751,0.534,2.855,2.375,2.589,4.16
		c-0.288,1.936-1.839,3.296-3.879,3.305c-5.702,0.018-11.407,0.006-17.109,0.006C84.399,64.336,77.173,64.336,69.947,64.336z"/>
	<linearGradient id="SVGID_16_" gradientUnits="userSpaceOnUse" x1="27.1938" y1="78.3516" x2="101.3442" y2="78.3516">
		<stop  offset="0" style="stop-color:#AD7A15"/>
		<stop  offset="0.0496" style="stop-color:#B47F12"/>
		<stop  offset="0.2251" style="stop-color:#C98D0A"/>
		<stop  offset="0.4208" style="stop-color:#D89604"/>
		<stop  offset="0.6509" style="stop-color:#E19C01"/>
		<stop  offset="1" style="stop-color:#E49E00"/>
	</linearGradient>
	<path fill-rule="evenodd" clip-rule="evenodd" fill="url(#SVGID_16_)" d="M64.224,74.476c10.937,0,21.873-0.004,32.809,0.002
		c2.729,0,4.464,1.704,4.3,4.171c-0.113,1.703-1.342,3.129-3.022,3.445c-0.576,0.108-1.173,0.133-1.762,0.133
		c-21.533,0.004-43.068,0.007-64.601,0.004c-2.889,0-4.624-1.333-4.748-3.624c-0.13-2.38,1.558-4.114,4.09-4.125
		c5.364-0.021,10.727-0.007,16.087-0.007C52.995,74.476,58.612,74.476,64.224,74.476z"/>
	<linearGradient id="SVGID_17_" gradientUnits="userSpaceOnUse" x1="27.1938" y1="96.1973" x2="101.3379" y2="96.1973">
		<stop  offset="0" style="stop-color:#AD7A15"/>
		<stop  offset="0.0496" style="stop-color:#B47F12"/>
		<stop  offset="0.2251" style="stop-color:#C98D0A"/>
		<stop  offset="0.4208" style="stop-color:#D89604"/>
		<stop  offset="0.6509" style="stop-color:#E19C01"/>
		<stop  offset="1" style="stop-color:#E49E00"/>
	</linearGradient>
	<path fill-rule="evenodd" clip-rule="evenodd" fill="url(#SVGID_17_)" d="M64.224,100.062c-10.937,0-21.871,0.007-32.805-0.001
		c-2.596-0.002-4.289-1.63-4.224-3.999c0.054-1.864,1.389-3.386,3.237-3.647c0.5-0.069,1.011-0.086,1.518-0.086
		c21.321-0.004,42.642-0.001,63.964,0.002c0.675,0,1.355-0.011,2.023,0.061c2.044,0.23,3.436,1.837,3.399,3.883
		c-0.031,2.013-1.526,3.604-3.547,3.767c-0.421,0.036-0.847,0.02-1.268,0.02C85.757,100.065,74.989,100.062,64.224,100.062z"/>
	<linearGradient id="SVGID_18_" gradientUnits="userSpaceOnUse" x1="135.6592" y1="103.3174" x2="167.8965" y2="103.3174">
		<stop  offset="0" style="stop-color:#AD7A15"/>
		<stop  offset="0.0496" style="stop-color:#B47F12"/>
		<stop  offset="0.2251" style="stop-color:#C98D0A"/>
		<stop  offset="0.4208" style="stop-color:#D89604"/>
		<stop  offset="0.6509" style="stop-color:#E19C01"/>
		<stop  offset="1" style="stop-color:#E49E00"/>
	</linearGradient>
	<path fill-rule="evenodd" clip-rule="evenodd" fill="url(#SVGID_18_)" d="M151.848,99.471c3.925,0,7.849-0.009,11.771,0.005
		c2.543,0.009,4.277,1.576,4.277,3.825c-0.002,2.253-1.753,3.856-4.26,3.861c-7.933,0.006-15.865,0.009-23.799-0.002
		c-2.515-0.002-4.207-1.605-4.179-3.909c0.026-2.247,1.682-3.766,4.165-3.775C143.832,99.462,147.841,99.471,151.848,99.471z"/>
	<linearGradient id="SVGID_19_" gradientUnits="userSpaceOnUse" x1="135.6592" y1="120.8086" x2="167.8994" y2="120.8086">
		<stop  offset="0" style="stop-color:#AD7A15"/>
		<stop  offset="0.0496" style="stop-color:#B47F12"/>
		<stop  offset="0.2251" style="stop-color:#C98D0A"/>
		<stop  offset="0.4208" style="stop-color:#D89604"/>
		<stop  offset="0.6509" style="stop-color:#E19C01"/>
		<stop  offset="1" style="stop-color:#E49E00"/>
	</linearGradient>
	<path fill-rule="evenodd" clip-rule="evenodd" fill="url(#SVGID_19_)" d="M151.779,124.655c-3.966,0-7.933,0.004-11.899,0
		c-2.545-0.004-4.225-1.549-4.221-3.861c0.006-2.24,1.67-3.818,4.127-3.823c7.973-0.016,15.948-0.016,23.921-0.002
		c2.445,0.002,4.155,1.583,4.191,3.789c0.035,2.242-1.74,3.89-4.222,3.895C159.709,124.66,155.742,124.655,151.779,124.655z"/>
</g>
</svg>
